10/10/16 16:30

Error loading Sean-Wade/sql2.py:
	No module named sql2

-------------------------------------------------------

10/14/16 14:40

Problem 1 (0 points):Congratulations!  You don't have to do this problem!
Score += 0

Problem 2 (10 points):
Score += 10

Problem 3 (10 points):
Make sure to exclude NULL grades
Score += 5

Problem 4 (10 points):
Score += 10

Problem 5 (10 points):
Score += 10

Total score: 35/40 = 87.5%

-------------------------------------------------------

10/14/16 15:55

Problem 1 (0 points):Congratulations!  You don't have to do this problem!
Score += 0

Problem 2 (10 points):
Score += 10

Problem 3 (10 points):
Make sure you're excluding students with null grades
Score += 5

Problem 4 (10 points):
Score += 10

Problem 5 (10 points):
Score += 10

Total score: 35/40 = 87.5%

-------------------------------------------------------

10/14/16 17:17

Problem 1 (0 points):Congratulations!  You don't have to do this problem!
Score += 0

Problem 2 (10 points):
Score += 10

Problem 3 (10 points):
Score += 10

Problem 4 (10 points):
Score += 10

Problem 5 (10 points):
Score += 10

Total score: 40/40 = 100.0%

Excellent!

-------------------------------------------------------

